…
## Livros

``` r
livros <- documento %>% 
  str_split_1("(?=LIVRO )") %>%
  enframe(name = "livro", value = "conteudo") %>%
  mutate(
    livro = str_extract(conteudo, "LIVRO [IVXDLCM]+") %|NA|% "_VAZIO_",
    conteudo = str_remove(conteudo, fixed(livro))
  ) 
livros %>% count(livro)
```

    ## # A tibble: 24 × 2
    ##    livro          n
    ##    <chr>      <int>
    ##  1 LIVRO I        1
    ##  2 LIVRO II       1
    ##  3 LIVRO III      1
    ##  4 LIVRO IV       1
    ##  5 LIVRO IX       1
    ##  6 LIVRO V        1
    ##  7 LIVRO VI       1
    ##  8 LIVRO VII      1
    ##  9 LIVRO VIII     1
    ## 10 LIVRO X        1
    ## # … with 14 more rows
…
    conteudo = map(conteudo, function(conteudo) {
      conteudo %>% 
        str_split_1("(?=TÍTULO )") %>%
        enframe(name = "titulo", value = "conteudo") %>%
        mutate(
          titulo = str_extract(conteudo, "TÍTULO ([IVXDLCM]+|ÚNICO)") %|NA|% "_VAZIO_",
          conteudo = str_remove(conteudo, fixed(titulo))
        ) 
    })
  ) %>% 
  unnest(conteudo)
titulos %>% count(titulo)
```

    ## # A tibble: 21 × 2
    ##    titulo          n
    ##    <chr>       <int>
    ##  1 TÍTULO I       18
    ##  2 TÍTULO II      18
    ##  3 TÍTULO III     16
    ##  4 TÍTULO IV      13
    ##  5 TÍTULO IX       1
    ##  6 TÍTULO V        5
    ##  7 TÍTULO VI       4
    ##  8 TÍTULO VII      2
    ##  9 TÍTULO VIII     2
    ## 10 TÍTULO X        1
    ## # … with 11 more rows
…
    conteudo = map(conteudo, function(conteudo) {
      conteudo %>% 
        str_split_1("(?=Art\\. )") %>%
        enframe(name = "artigo", value = "conteudo") %>%
        mutate(
          artigo = str_extract(conteudo, "Art\\. +[0-9]+ *[º°.]") %|NA|% "_VAZIO_",
          conteudo = str_remove(conteudo, fixed(artigo))
        )
    })
  ) %>% 
  unnest(conteudo)
artigos %>% count(artigo)
```

    ## # A tibble: 899 × 2
    ##    artigo        n
    ##    <chr>     <int>
    ##  1 Art. 10.      1
    ##  2 Art. 100.     1
    ##  3 Art. 101.     1
    ##  4 Art. 102.     1
    ##  5 Art. 103.     1
    ##  6 Art. 104.     1
    ##  7 Art. 105.     1
    ##  8 Art. 106.     1
    ##  9 Art. 107.     1
    ## 10 Art. 108.     1
    ## # … with 889 more rows
…
      conteudo %>% 
        str_split_1("(?= {5}[IVXDLCM]+ )") %>%
        enframe(name = "inciso", value = "conteudo") %>%
        mutate(
          inciso = str_extract(conteudo, "^ {5}[IVXDLCM]+[– -]+ ") %|NA|% "_VAZIO_",
          conteudo = str_remove(conteudo, fixed(inciso)),
          inciso = str_remove_all(inciso, "[– -]")
        )
    })
  ) %>% 
  unnest(conteudo)
incisos %>% count(inciso)
```

    ## # A tibble: 24 × 2
    ##    inciso     n
    ##    <chr>  <int>
    ##  1 I        291
    ##  2 II       291
    ##  3 III      197
    ##  4 IV       112
    ##  5 IX        24
    ##  6 V         79
    ##  7 VI        56
    ##  8 VII       43
    ##  9 VIII      30
    ## 10 X         19
    ## # … with 14 more rows
…
